%YAML 1.1
%TAG !u! tag:unity3d.com,2011:
--- !u!1045 &1
EditorBuildSettings:
  m_ObjectHideFlags: 0
  serializedVersion: 2
  m_Scenes:
  - enabled: 1
    path: Assets/Scenes/StartVideo.unity
    guid: 1ec8550b176a74beb9e647e8cda2f4b0
  - enabled: 1
    path: Assets/Scenes/Menu.unity
    guid: 9fc0d4010bbf28b4594072e72b8655ab
  - enabled: 1
    path: Assets/Scenes/ImageTarget.unity
    guid: 3328ea7bc5cc22d4395cfe76f9442950
  - enabled: 1
    path: Assets/Scenes/PlaneDetection.unity
    guid: 50dd71802b76943fcb90c5ef7dd1edde
  m_configObjects:
    Unity.XR.WindowsMR.Settings: {fileID: 11400000, guid: acb519eed5a78f5498192f34819a58a5,
      type: 2}
    com.unity.xr.arkit.PlayerSettings: {fileID: 11400000, guid: 993efb5fa4530e749b52534cafe63a2e,
      type: 2}
    com.unity.xr.magicleap.magic_leap_settings: {fileID: 11400000, guid: bac0ae40eee6e424b8187af83ba67429,
      type: 2}
    com.unity.xr.management.loader_settings: {fileID: 11400000, guid: 9418eec19bb67864bbb1be5ef3e8ac06,
      type: 2}
    xr.sdk.mock-hmd.settings: {fileID: 11400000, guid: 2000096ceb5dc5d49b11b7a682d851bf,
      type: 2}
